level;text;correctAnswer
0;ashi;voet, been
0;barai;vegen
0;de;vooruitkomen
0;dori;nemen
0;ebi (kani);kreeft
0;eri;revers, kraag
0;gake;halen
0;garami;gebogen, gedraaid
0;gari;maaien
0;gatame (katame);houden, controle
0;gesa (kesa);schuin, revers
0;goshi (koshi);heup
0;guruma;rad, wiel
0;gyaku;omgekeerd
0;hadaka;naakt
0;hajime;begin
0;hane;vleugel
0;hara;buik
0;harai;vegen
0;henka;verandering
0;hidari;links
0;hiji;elleboog
0;hikikomi;trekkende compensatie
0;hiki;trekken
0;hiza;knie
0;hon;fundamenteel, basis
0;ippon;één punt, één zijde
0;jigotai;diepe verdedigende houding
0;jigo;verdediging
0;jime (shim);wurgen
0;juji;gekruist
0;kaiten;rol
0;kake;uitvoering van de worp
0;kami;boven op
0;kata;schouder, type, één kant
0;kesa (gesa);schuin, revers
0;ko;klein
0;kumi kata;grijptechnieken
0;kuzishi;balans verstoren
0;matte;wacht
0;morote;beide handen
0;nage;worp, werpen
0;nami;normaal, gewoon
0;ne;grond
0;obi;riem, band
0;o;groot
0;okuri;beide
0;otagai ni rei;groet de partner
0;otoshi;laten vallen, neervallen
0;rei;groet
0;ritsu rei;staande groet
0;sabaki;ontwijken
0;sankaku;driehoek
0;sensei ni rei;groet de leraar
0;seoi;rug, op de rug nemen
0;shiho;vier punten
0;shizentai;normale houding
0;soto;buiten
0;tai;lichaam
0;tanden;buik
0;tani;dal
0;tate;in de lengte, verticaal
0;te;hand
0;tomoe;boog, boogvormige hoek
0;tori;aanvaller
0;tsuki;stoot
0;tsukuri;aanzet tot de worp
0;tsurikomi;naar zich toe trekken en tillen
0;tsuri;trekken
0;uchi;binnenwaarts
0;ude;arm
0;uke;verdediger
0;uki;zweven, drijven
0;ura;tegenoverstellen
0;ushiro;naar achter
0;utsuri;wisselen
0;wakare;rukken, trekken
0;waki;oksel, flank
0;waza;techniek
0;yoko;zijde, zijdelings
0;yoshi;verder gaan
0;za rei;zittende groet
0;mae;vooruit
0;ushiro;achteruit
0;kuzishi;balansverstoring
0;ayumi ashi;voortgaande bweweging
0;tsugi ashi;volgende voet
0;suri ashi;glijdende voet
0;tai sabaki;gecontroleerd bewegen van het lichaam
0;ushiro sabaki;gecontroleerd achteruit bewegen
0;mae mawari sabaki;gecontroleerd voorwaarts draaiende beweging
0;ushiro mawari sabaki;gecontroleerd achterwaarts draaiende beweging
0;uke kame;uke zit bok
0;uke harabai;uke ligt op de buik
0;tori aomuke;tori gezicht omhoog, uke tussen de benen
0;uke aomuke;uke gezicht omhoog. Tori tussen de benen, passeert
0;tori kame;tori schildpad. Uke probeert te kantelen, tori neemt over
1;ashi barai;voetveeg
1;ashi waza;beenworpen
1;de ashi barai;voorste beenveeg
1;gaeshi waza;overnametechniek
1;gatame waza;controletechniek. houdgrepen, verwurgingen, armklemmen
1;ippon seoi nage;eenzijdige rugworp
1;kaeshi waza;overnametechniek
1;kami shiho gatame;hoge 4 puntencontrole
1;kansetsu waza;gewrichtsklemtechniek
1;kesa gatame;flankcontrole
1;koshi guruma;heupwiel
1;koshi waza;heuptechnieken
1;makikomi waza;inroltechniek
1;ma sutemi waza;opofferingstechniek op de rug
1;nage waza;werptechnieken
1;ne waza;grondtechnieken
1;o goshi;grote heupworp
1;o soto gari;grote buitenwaartste maai
1;rensoku waza;vervolgtechnieken
1;shime waza;verwurgingtechnieken
1;tachi waza;staande techniek
1;te waza;arm-, handtechnieken
1;tori waza;aanvallende techniek
1;ukemi;valbreken
1;uke waza;verdedigende techniek
1;ushiro;achterwaarts
1;ushiro kaiten;achterwaartse rol
1;yoko shiho gatame;zijdelingse 4 punten controle
1;yoko ukemi;zijwaartse val
1;zenpo kaiten;voorwaartse rol
2;hadaka jime;naakte verwurging
2;hiza guruma;knierad
2;juji gatame;gekruiste controle
2;morote jime;tweezijdige verwurging
2;nami juji jime;gewone gekruiste verwurging
2;okuri eri jime;beide revers verwurging
2;tomoe nage;boogworp
2;ude garami;armverdraaiing
2;ude gatame;armcontrole
3;gyaku juji jime;omgekeerde gekruiste verwurging
3;kata te jime;eenzijdige hangverwurging
3;ko uchi gari;kleine binnenwaartse maai
3;okuri ashi barai;beide benenveeg
3;o uchi gari;grote binnenwaartse maai
3;tai otoshi;lichaam neervallen
3;tani otoshi;dal neervallen
3;tate shiho gatame;4 puntencontrole in de lengte
3;tsurikomi goshi;tillende heup
4;harai goshi;veegheup
4;morote seoi nage;dubbelzijdige rugworp
4;o uchi barai;grote binnenwaartse veeg
4;sankaku jime;onderliggende driehoeksverwurging
4;ushiro sankaku jime;driehoeksverwurging
4;waki gatame;oksel/flankcontrole
4;yoko sankaku jime;zijwaartse driehoeksverwurging
5;kata ha jime;eenzijdige vleugel verwurging
5;kata juji jime;eenzijdige gekruiste verwurging
5;sumi gaeshi;gehoekte tegenworp
5;uchi mata;binnen dijbeen
5;yoko tomoe nage;zijwaartse boogworp
6;hishigi;gestrekt
6;katate jime;enkelhandige verwurging
6;ko uchi barai;kleine binnenwaartse veeg
6;sasae tsurikomi ashi;stuttend beenblok
6;tokui waza;specialiteit
6;tsukomi jime;duwende verwurging
6;tsuri goshi;tillende heupworp
6;tsurikomi goshi;tillende trekkende heup
6;ude hishigi hara gatame;staande armoverstrekking, arm tegen buik
6;ude hishigi hiza gatame;armoverstrekking met de knie
6;ude hishigi juji gatame;boven gekruiste armoverstrekking
6;ude hishigi ude gatame;staande armoverstrekking, arm in nek 
6;ude hishigi waki gatame;staande armoverstrekking, arm onder oksel
6;uki goshi;drijvende heup
9;age;oplichten
9;ashi garami;beenverdraaiing
9;ashi gatame;houdgreep met de benen
9;ashi gurmuma;been wiel
9;atama;hoofd
9;atemi;slagen en stoten
9;ate;slag
9;ayumi ashi;gaan, lopen, voortbewegen
9;basami (hasami);schaar
9;butsu kari;met explosieve kracht inzetten
9;cha;bruin
9;chiisai;klein
9;chikara;kracht
9;chusen (hasami);door loting
9;daki (kakae);omarmen
9;do jime;beenschaar
9;gaeshi (kaeshi);tegen aanval
9;gokyo;vijf groepen/series
9;gonosen no kata;vorm van tegen worpen
9;go;vijf
9;hansuku make;diskwalificatie
9;hantei;oordeel
9;hasami;schaar
9;hon kesa gatame;basis flankcontrole
9;idori;geknielde zit
9;itsutsu no kata;vorm van vijf
9;jigotai;verdedigingshouding
9;jitsu;techniek, kunst
9;joseki (kamiza) (joza);ereplaats in dojo
9;judogi (keigogi) (shim);judokleding
9;kaeshi (gaeshi);tegenaanval
9;kai (kwai);gemeenschap
9;kakae (daki);omarmen
9;kakari geiko;trainingsvorm, waarbij uke ontwijkend verdedigt
9;kake;uitvoeren
9;kamiza (jeseki) (joza);ereplaats in dojo
9;kan geiko;wintertraining
9;kano, jigoro;grondlegger van judo
9;kansetsu (kwansetsu);gewicht
9;kataha;vleugel
9;katame (gatame);houden, controle
9;katame no kata (shim);controle naar vorm
9;katsu (kwatsu);reanimatiemethode
9;keiko (geiko);oefening
9;keikogi (judogi);judokleding
9;kiai;roepen, kreet
9;kime no kata;zelfverdedigingvorm
9;kimono;kleding
9;kio (kyo);beginsel, groep
9;kiri;splijten
9;kodokan;judocentrum in tokio
9;kohaku shiai;competitie rood en wit
9;komi;tegen, binnen
9;koshiki no kata;antieke vorm
9;koten shiai;vorm van competitie
9;kuatsu (katsu) (kwatsu);reanimatiemethode
9;kubi;hals
9;kumi kata;manier van vastpakken
9;kumi;pakken, grijpen
9;kumite;oefeningen met partner, vastpakken met de hand
9;kuzure;variatie
9;kuzushi;evenwicht verbreken
9;kwai (kai);gemeenschap
9;kwansetsu;gewicht
9;kyu;klas, graad, band kleur
9;mae ukemi;voorwaarts vallen
9;mae;voorwaarts
9;maitta;ik geef op
9;maki;rollen, inrollen, draaien
9;ma;rechtuit
9;mata;dij
9;migi jigotai;rechtse verdedigingspositie
9;migi;rechts
9;migi shizental;rechtse aanvalspositie
9;mochi;met de handen nemen
9;mokuso;judozit met concentratie
9;mudansha;een kyu graadhouder
9;mune;borst
9;nage no kata;vorm van het werpen
9;ohten;draaien, op de zij
9;osae komi;houdgreep
9;osae komi toketa;houdgreep verbroken
9;osae;vasthouden
9;randori;vrij oefenen
9;ran;los, vrij
9;renraku;combinatie met de actie in tegenovergestelde richting
9;renshu;oefenen
9;rensoku;combinatie met de actie in dezelfde richting
9;rio (ryo);twee, beide
9;ritsu rei;staande groet
9;ryu,riu;school, methode
9;saika tanden;onderbuik
9;san;geachte
9;sasae;stutten, tegenhouden
9;shiaijo;competitieoppervlakte
9;shiai;wedstrijd
9;shihan;grootmeester
9;shime, jime;verwurgen
9;shinpan;scheidsrechter
9;shintai;lichaamsbeweging
9;shisei;lichaamshouding
9;shizentai;natuurlijke lichaamshouding
9;sode;mouw
9;sono mama;niet bewegen
9;sore made;dat is alles
9;sotai renshu;oefenen met medestander
9;sukui;lepel- of schepbeweging met de hand
9;sumi;hoek
9;sutemi;opofferen, opoffering
9;tachi;rechtstechniek
9;tai sabaki;aanval ontwijken
9;taisho;ploegleider
9;tandoku renshyu;alleen oefenen
9;tatami;judomat
9;tawara;rijstbaal
9;toketa;verbroken
9;tokui;voorkeurtechniek
9;tsuki ashi;stotende voet
9;uchi komi;inzetten zonder de eindvorm
9;waza ari awasete ippon;tweemaal bijna punt
9;waza ari;halve punt, wedstrijdwaardering
9;yaku soku geiko;studieoefening in beweging
9;yama;berg
9;yudansha;drager van een dangraad
9;yusei gachi;gewonnen door overmacht
9;zarei;zitgroet
9;zazen;concentratiezit
9;za;zitplaats
9;zen;zen
9;zubon;broek